SP,ELEV_I,ELEV_E,HC_IN,HC_OUT,THICK_IN,THICK_OUT
1.0000,5.5000,3.0000,8.640000,8.640000,0.500,0.500
2.0000,5.5000,3.0000,8.640000,8.640000,0.500,0.500
3.0000,5.5000,3.0000,8.640000,8.640000,0.500,0.500
