Name,Package,Type,StartValue,LayerBased,layer,UseZones,ZoneLayer,ZoneId,Adjustable,Transform,Constr,Upper,Lower,PerturbAmt
HK_1,LPF,HK,29.52,Yes,1,No,,,Yes,Yes,No,0,0,0.01
VK_CB,LPF,VKA,0.0864,Yes,2,No,,,Yes,Yes,No,0,0,0.01
HK_2_1,LPF,HK,3.5,Yes,3,Yes,HK_Aquifer2_zone,2,Yes,Yes,No,0,0,0.01
HK_2_2,LPF,HK,17.3,Yes,3,Yes,HK_Aquifer2_zone,3,Yes,Yes,No,0,0,0.01
HK_2_3,LPF,HK,31.1,Yes,3,Yes,HK_Aquifer2_zone,4,Yes,Yes,No,0,0,0.01
SS_1,LPF,SS,2.60E-05,Yes,1,No,,,Yes,Yes,No,0,0,0.01
SS_2,LPF,SS,4.00E-06,Yes,3,No,,,Yes,Yes,No,0,0,0.01
